subsystem,message_name,type,description
hammer,in_hammer_power,bool,Turns On/Off the rotary hammer
hammer,in_height_up,bool,When True and the corresponding Down command is not True this moves the excavation actuator towards its contracted state
hammer,in_height_down,bool,When True and the corresponding Up command is not True this moves the excavation actuator towards its extended state
hammer,in_goto_height,float32,Allows an operator to set a height for the excavation actuator to goto. The height is not closed loop controlled.
hammer,in_reset_height,bool,Resets the estimated height to the reset value
hammer,in_reset_height_value,float32,Value to reset the height to
bucket,in_height_up,bool,When True and the corresponding Up command is not True this moves the height controlling transfer actuator towards its contracted state
bucket,in_height_down,bool,When True and the corresponding Up command is not True this moves the height controlling transfer actuator towards its extended state
bucket,in_angle_up,bool,When True and the corresponding Down command is not True this moves the angle controlling transfer actuator towards its contracted state
bucket,in_angle_down,bool,When True and the corresponding Up command is not True this moves the angle controlling transfer actuator towards its extended state
bucket,in_reset_height,bool,Resets the transfer height to reset value
bucket,in_reset_angle,bool,Resets the transfer angle to reset value
bucket,in_reset_angle_value,float32,Value to reset the angle to
bucket,in_reset_height_value,float32,Value to reset the height to
bucket,in_goto_height,float32,Allows an operator to set a height for the transfer actuator to goto. The height is not closed loop controlled.
bucket,in_goto_angle,float32,Allows an operator to set an angle for the transfer actuator to goto. The angle is not closed loop controlled.
hammer,out_est_height,float32,Estimated height of the hammer tip
bucket,out_est_height,float32,Estimated height of the bucket tip
bucket,out_est_angle,float32,Estimated angle of the bucket tip
